Chapter 5 Communication between Spark and sparklyr | Using Spark from R for performance with arbitrary code
…
5.2 An R function translated to Spark SQL

Using the following fun_implemented() function will yield the expected results for both a local data frame weather and the remote Spark object referenced by tbl_weather.

# An R function `tolower` translated to Spark SQL
fun_implemented <- function(df, col) {
  df %>% mutate({{col}} := tolower({{col}}))
}

First, let us run fun_implemented for a local data frame in our R session. Note that the output of the command is A tibble: 26,115 x 16, meaning this is an object in our local R session.

fun_implemented(weather, origin)

## # A tibble: 26,115 x 16
##       id origin  year month   day  hour  temp  dewp humid wind_dir wind_speed
##    <int> <chr>  <int> <int> <int> <int> <dbl> <dbl> <dbl>    <dbl>      <dbl>
##  1     1 ewr     2013     1     1     1  39.0  26.1  59.4      270      10.4 
##  2     2 ewr     2013     1     1     2  39.0  27.0  61.6      250       8.06
##  3     3 ewr     2013     1     1     3  39.0  28.0  64.4      240      11.5 
##  4     4 ewr     2013     1     1     4  39.9  28.0  62.2      250      12.7 
##  5     5 ewr     2013     1     1     5  39.0  28.0  64.4      260      12.7 
##  6     6 ewr     2013     1     1     6  37.9  28.0  67.2      240      11.5 
##  7     7 ewr     2013     1     1     7  39.0  28.0  64.4      240      15.0 
##  8     8 ewr     2013     1     1     8  39.9  28.0  62.2      250      10.4 
##  9     9 ewr     2013     1     1     9  39.9  28.0  62.2      260      15.0 
## 10    10 ewr     2013     1     1    10  41    28.0  59.6      260      13.8 
## # … with 26,105 more rows, and 5 more variables: wind_gust <dbl>, precip <dbl>,
## #   pressure <dbl>, visib <dbl>, time_hour <dttm>
…
5.3 An R function not translated to Spark SQL

Using the following fun_r_only() function will only yield the expected results for a local data frame weather. For the remote Spark object referenced by tbl_weather we will get an error:

# An R function `casefold` not translated to Spark SQL
fun_r_only <- function(df, col) {
  df %>% mutate({{col}} := casefold({{col}}, upper = FALSE))
}

The function executes successfully on a local R data frame as R knows the function casefold():

fun_r_only(weather, origin)

## # A tibble: 26,115 x 16
##       id origin  year month   day  hour  temp  dewp humid wind_dir wind_speed
##    <int> <chr>  <int> <int> <int> <int> <dbl> <dbl> <dbl>    <dbl>      <dbl>
##  1     1 ewr     2013     1     1     1  39.0  26.1  59.4      270      10.4 
##  2     2 ewr     2013     1     1     2  39.0  27.0  61.6      250       8.06
##  3     3 ewr     2013     1     1     3  39.0  28.0  64.4      240      11.5 
##  4     4 ewr     2013     1     1     4  39.9  28.0  62.2      250      12.7 
##  5     5 ewr     2013     1     1     5  39.0  28.0  64.4      260      12.7 
##  6     6 ewr     2013     1     1     6  37.9  28.0  67.2      240      11.5 
##  7     7 ewr     2013     1     1     7  39.0  28.0  64.4      240      15.0 
##  8     8 ewr     2013     1     1     8  39.9  28.0  62.2      250      10.4 
##  9     9 ewr     2013     1     1     9  39.9  28.0  62.2      260      15.0 
## 10    10 ewr     2013     1     1    10  41    28.0  59.6      260      13.8 
## # … with 26,105 more rows, and 5 more variables: wind_gust <dbl>, precip <dbl>,
## #   pressure <dbl>, visib <dbl>, time_hour <dttm>
…
