Chapter 7 Constructing functions by piping dplyr verbs | Using Spark from R for performance with arbitrary code
…
7.1.1 Trying it with base R functions

The first attempt could be quite simple, we could attempt to take advantage of R’s base function scale() to do the work for us:

normalize_dplyr_scale <- function(df, col, newColName) {
  df %>% mutate(!!newColName := scale({{col}}))
}

This function would work fine with a local data frame such as weather:

weather %>%
  normalize_dplyr_scale(temp, "normTemp") %>%
  select(id, temp, normTemp)

## # A tibble: 26,115 x 3
##       id  temp normTemp[,1]
##    <int> <dbl>        <dbl>
##  1     1  39.0       -0.913
##  2     2  39.0       -0.913
##  3     3  39.0       -0.913
##  4     4  39.9       -0.862
##  5     5  39.0       -0.913
##  6     6  37.9       -0.974
##  7     7  39.0       -0.913
##  8     8  39.9       -0.862
##  9     9  39.9       -0.862
## 10    10  41         -0.802
## # … with 26,105 more rows
…
normalize_dplyr <- function(df, col, newColName) {
  df %>% mutate(
    !!newColName := ({{col}} - mean({{col}}, na.rm = TRUE)) /
        sd({{col}}, na.rm = TRUE)
  )
}

Using this function yields the desired results for both local and Spark data frames:

## Local data frame
weather %>%
  normalize_dplyr(temp, "normTemp") %>%
  select(id, temp, normTemp)

## # A tibble: 26,115 x 3
##       id  temp normTemp
##    <int> <dbl>    <dbl>
##  1     1  39.0   -0.913
##  2     2  39.0   -0.913
##  3     3  39.0   -0.913
##  4     4  39.9   -0.862
##  5     5  39.0   -0.913
##  6     6  37.9   -0.974
##  7     7  39.0   -0.913
##  8     8  39.9   -0.862
##  9     9  39.9   -0.862
## 10    10  41     -0.802
## # … with 26,105 more rows

## Spark DataFrame
tbl_weather %>%
  normalize_dplyr(temp, "normTemp") %>%
  select(id, temp, normTemp) %>% 
  collect()

## # A tibble: 26,115 x 3
##       id  temp normTemp
##    <int> <dbl>    <dbl>
##  1     1  39.0   -0.913
##  2     2  39.0   -0.913
##  3     3  39.0   -0.913
##  4     4  39.9   -0.862
##  5     5  39.0   -0.913
##  6     6  37.9   -0.974
##  7     7  39.0   -0.913
##  8     8  39.9   -0.862
##  9     9  39.9   -0.862
## 10    10  41     -0.802
## # … with 26,105 more rows
…
joined_spark %>% filter(is.nan(temp)) %>% count()

## # A tibble: 1 x 1
##       n
##   <int>
## 1  1697

Special care must also be taken when dealing with date/time values and their time zones:

# Note the time_hour values are different
weather %>% select(id, time_hour)

## # A tibble: 26,115 x 2
##       id time_hour          
##    <int> <dttm>             
##  1     1 2013-01-01 01:00:00
##  2     2 2013-01-01 02:00:00
##  3     3 2013-01-01 03:00:00
##  4     4 2013-01-01 04:00:00
##  5     5 2013-01-01 05:00:00
##  6     6 2013-01-01 06:00:00
##  7     7 2013-01-01 07:00:00
##  8     8 2013-01-01 08:00:00
##  9     9 2013-01-01 09:00:00
## 10    10 2013-01-01 10:00:00
## # … with 26,105 more rows
…
