Chapter 9 Using the lower-level invoke API to manipulate Spark’s Java objects from R | Using Spark from R for performance with arbitrary code
…
If we so wish, for DataFrame related object references, we can also call collect() to retrieve the results directly, without using sdf_register() first, for instance retrieving the full content of the origin column:

tbl_flights %>% spark_dataframe() %>%
  invoke("select", "origin", list()) %>%
  collect()

## # A tibble: 336,776 x 1
##    origin
##    <chr> 
##  1 EWR   
##  2 LGA   
##  3 JFK   
##  4 JFK   
##  5 LGA   
##  6 EWR   
##  7 EWR   
##  8 LGA   
##  9 JFK   
## 10 LGA   
## # … with 336,766 more rows
…
