Chapter 7 Using R to construct SQL queries and let Spark execute them | Using Spark from R for performance with arbitrary code
…
# Use the query "lazily" without execution:
normalized_lazy_ds <- sc %>%
  spark_session() %>%
  invoke("sql",  normalize_temp_query)
normalized_lazy_ds

## <jobj[312]>
##   org.apache.spark.sql.Dataset
##   [id: int, origin: string ... 15 more fields]

# Collect when needed:
normalized_lazy_ds %>% collect()

## # A tibble: 26,115 x 17
##       id origin  year month   day  hour  temp  dewp humid wind_dir wind_speed
##    <int> <chr>  <int> <int> <int> <int> <dbl> <dbl> <dbl>    <dbl>      <dbl>
##  1     1 EWR     2013     1     1     1  39.0  26.1  59.4      270      10.4 
##  2     2 EWR     2013     1     1     2  39.0  27.0  61.6      250       8.06
##  3     3 EWR     2013     1     1     3  39.0  28.0  64.4      240      11.5 
##  4     4 EWR     2013     1     1     4  39.9  28.0  62.2      250      12.7 
##  5     5 EWR     2013     1     1     5  39.0  28.0  64.4      260      12.7 
##  6     6 EWR     2013     1     1     6  37.9  28.0  67.2      240      11.5 
##  7     7 EWR     2013     1     1     7  39.0  28.0  64.4      240      15.0 
##  8     8 EWR     2013     1     1     8  39.9  28.0  62.2      250      10.4 
##  9     9 EWR     2013     1     1     9  39.9  28.0  62.2      260      15.0 
## 10    10 EWR     2013     1     1    10  41    28.0  59.6      260      13.8 
## # … with 26,105 more rows, and 6 more variables: wind_gust <dbl>, precip <dbl>,
## #   pressure <dbl>, visib <dbl>, time_hour <dttm>, normTemp <dbl>
…
# Collect the entire result to the R session and print
normalized_lazy_tbl %>% collect()

## # A tibble: 26,115 x 17
##       id origin  year month   day  hour  temp  dewp humid wind_dir wind_speed
##    <int> <chr>  <int> <int> <int> <int> <dbl> <dbl> <dbl>    <dbl>      <dbl>
##  1     1 EWR     2013     1     1     1  39.0  26.1  59.4      270      10.4 
##  2     2 EWR     2013     1     1     2  39.0  27.0  61.6      250       8.06
##  3     3 EWR     2013     1     1     3  39.0  28.0  64.4      240      11.5 
##  4     4 EWR     2013     1     1     4  39.9  28.0  62.2      250      12.7 
##  5     5 EWR     2013     1     1     5  39.0  28.0  64.4      260      12.7 
##  6     6 EWR     2013     1     1     6  37.9  28.0  67.2      240      11.5 
##  7     7 EWR     2013     1     1     7  39.0  28.0  64.4      240      15.0 
##  8     8 EWR     2013     1     1     8  39.9  28.0  62.2      250      10.4 
##  9     9 EWR     2013     1     1     9  39.9  28.0  62.2      260      15.0 
## 10    10 EWR     2013     1     1    10  41    28.0  59.6      260      13.8 
## # … with 26,105 more rows, and 6 more variables: wind_gust <dbl>, precip <dbl>,
## #   pressure <dbl>, visib <dbl>, time_hour <dttm>, normTemp <dbl>
…
Putting this together, we can create a simple wrapper function that lazily sends a SQL query to be processed on a particular Spark DataFrame reference:

lazy_spark_query <- function(tbl, qry) {
  qry %>%
    dbplyr::sql() %>%
    dplyr::tbl(tbl[["src"]][["con"]], .)
}

And use it to do the same as we did above with a single function call:

lazy_spark_query(tbl_weather, normalize_temp_query) %>% 
  collect()

## # A tibble: 26,115 x 17
##       id origin  year month   day  hour  temp  dewp humid wind_dir wind_speed
##    <int> <chr>  <int> <int> <int> <int> <dbl> <dbl> <dbl>    <dbl>      <dbl>
##  1     1 EWR     2013     1     1     1  39.0  26.1  59.4      270      10.4 
##  2     2 EWR     2013     1     1     2  39.0  27.0  61.6      250       8.06
##  3     3 EWR     2013     1     1     3  39.0  28.0  64.4      240      11.5 
##  4     4 EWR     2013     1     1     4  39.9  28.0  62.2      250      12.7 
##  5     5 EWR     2013     1     1     5  39.0  28.0  64.4      260      12.7 
##  6     6 EWR     2013     1     1     6  37.9  28.0  67.2      240      11.5 
##  7     7 EWR     2013     1     1     7  39.0  28.0  64.4      240      15.0 
##  8     8 EWR     2013     1     1     8  39.9  28.0  62.2      250      10.4 
##  9     9 EWR     2013     1     1     9  39.9  28.0  62.2      260      15.0 
## 10    10 EWR     2013     1     1    10  41    28.0  59.6      260      13.8 
## # … with 26,105 more rows, and 6 more variables: wind_gust <dbl>, precip <dbl>,
## #   pressure <dbl>, visib <dbl>, time_hour <dttm>, normTemp <dbl>
…
7.4.1 When a translation is not there

We have discussed in the first part that the set of operations translated to Spark SQL via dbplyr may not cover all possible use cases. In such a case, the option to write SQL directly is very useful.

7.4.2 When translation does not provide expected results

In some instances using dbplyr to translate R operations to Spark SQL can lead to unexpected results. As one example, consider the following integer division on a column of a local data frame.

# id_div_5 is as expected
weather %>%
  mutate(id_div_5 = id %/% 5L) %>%
  select(id, id_div_5)

## # A tibble: 26,115 x 2
##       id id_div_5
##    <int>    <int>
##  1     1        0
##  2     2        0
##  3     3        0
##  4     4        0
##  5     5        1
##  6     6        1
##  7     7        1
##  8     8        1
##  9     9        1
## 10    10        2
## # … with 26,105 more rows
…
